<?xml version="1.0" encoding="utf-8"?>
<!-- Generator: Adobe Illustrator 26.4.1, SVG Export Plug-In . SVG Version: 6.00 Build 0)  -->
<svg version="1.0" xmlns="http://www.w3.org/2000/svg" xmlns:xlink="http://www.w3.org/1999/xlink" x="0px" y="0px"
	 viewBox="0 0 1600 1600" style="enable-background:new 0 0 1600 1600;" xml:space="preserve">
<style type="text/css">
	.st0{fill:#646464;}
	.st1{fill:#0F0F0F;}
	.st2{fill:#4F4F4F;}
</style>
<g id="Layer_1">
</g>
<g id="Layer_2">
	<g>
		<g transform="translate(0.000000,1600.000000) scale(0.100000,-0.100000)">
			<path d="M11723,3586c-363-69-548-451-377-777c187-356,775-376,996-35c56,87,79,171,79,287c1,113-10,160-58,251
				c-43,82-144,181-225,220C12018,3591,11857,3611,11723,3586z M12007,3476c72-23,170-91,215-151c63-83,82-144,82-265
				c1-97-2-110-31-172c-78-165-228-258-416-258c-141,0-254,44-340,133c-136,139-160,366-57,527c62,97,177,176,291,200
				C11811,3502,11944,3495,12007,3476z"/>
			<path d="M3427,3583c-4-3-7-48-7-100v-93h290c160,0,290-2,290-5s-133-159-295-348l-294-342l-1-77v-78h480h481l-3,98l-3,97l-306,5
				l-306,5l293,340l293,340l1,83v82h-453C3637,3590,3430,3587,3427,3583z"/>
			<path d="M4530,3065v-525h425h426l-3,93l-3,92l-298,3l-298,2l3,123l3,122l253,3l253,2l-3,93l-3,92l-252,3l-253,2v110v110h285h285
				v100v100h-410h-410V3065z"/>
			<path d="M5570,3064v-525l368,3c352,3,369,4,427,26c83,31,134,69,170,127c27,43,30,57,30,129c0,63-5,90-22,122
				c-28,52-74,97-123,119l-39,18l48,43c56,51,82,105,82,178c1,82-16,130-66,180c-52,51-127,84-225,97c-36,4-197,8-357,9h-293V3064z
				 M6192,3382c101-49,88-178-20-210c-23-7-105-12-196-12h-156v118c0,65,3,122,8,126c4,5,77,6,163,4C6125,3404,6153,3400,6192,3382z
				 M6212,2968c22-6,53-24,69-39c24-23,29-35,29-77c0-108-58-132-317-132h-173v130v130h176C6103,2980,6188,2975,6212,2968z"/>
			<path d="M6760,3066v-526h128h127l-3,122c-5,180-13,168,121,168h112l103-145l104-145h135h135l-16,26c-10,14-60,84-112,156
				c-53,72-98,136-100,142c-3,7,10,19,28,28c131,64,204,219,179,377c-23,144-116,243-280,298c-36,12-112,17-353,20l-308,5V3066z
				 M7351,3368c59-26,93-79,97-152c4-81-23-130-92-165c-46-24-59-26-195-26h-146l-3,160c-1,88,0,171,3,184l6,23l147-4
				C7272,3385,7325,3379,7351,3368z"/>
			<path d="M8236,3563c-7-16-93-199-189-408s-198-429-226-489c-28-59-51-112-51-117c0-6,54-8,127-7l127,3l46,105l46,105l254,2l255,3
				l46-108l46-107l131-3c73-1,132,0,132,2c0,3-35,81-78,173c-44,92-152,327-242,521l-163,352h-123h-123L8236,3563z M8457,3148
				c45-106,81-194,79-195c-2-2-78-2-169-1l-166,3l82,192c45,106,84,193,87,193S8412,3254,8457,3148z"/>
			<path d="M9158,3584c-5-4-8-241-8-526v-518h60h60v164v164l218,4c243,5,292,16,384,83c190,140,179,442-22,563
				c-101,60-129,65-420,69C9284,3590,9162,3588,9158,3584z M9708,3471c78-24,125-61,157-124c50-101,23-249-57-310
				c-73-56-97-61-325-65l-213-4v261v261h189C9615,3490,9659,3487,9708,3471z"/>
			<path d="M10250,3066v-526h60h61l-1,148c-1,81-1,155,0,165c0,16,16,17,189,17h189l122-165l122-165h64h63l-87,118
				c-146,194-174,233-170,237c1,1,27,15,57,30c120,60,181,162,181,305c0,164-80,272-245,331c-54,20-86,22-332,27l-273,4V3066z
				 M10835,3462c104-48,148-116,149-232c1-83-21-140-72-186c-66-61-123-73-355-74l-188-2v251c0,138,0,256,1,262c0,7,63,10,208,7
				C10768,3485,10789,3483,10835,3462z"/>
		</g>
		<polygon class="st0" points="336.5,240 444.5,338.8 586.4,339.4 659.3,238 		"/>
		<polygon class="st1" points="336.5,240 336.5,671.2 444.5,338.8 		"/>
		<polygon points="444.5,338.8 586.4,339.4 336.5,671.2 		"/>
		<polygon class="st0" points="753.8,338.8 840.2,241.1 1090.7,241.1 879.8,339.4 		"/>
		<polygon class="st2" points="753.8,338.8 879.8,339.4 467.7,839.5 338.8,841.1 		"/>
		<polygon class="st1" points="338.8,841.1 467.7,839.5 337.4,1165.6 		"/>
		<polygon points="467.7,839.5 879.8,339.4 1090.7,241.1 337.4,1165.6 		"/>
		<polygon class="st2" points="507.8,1163.5 724.1,1055 1139.6,557.6 1263.1,238 		"/>
		<polygon class="st1" points="724.1,1055 849.4,1063.1 761.1,1163.1 507.8,1163.5 		"/>
		<polygon class="st1" points="1263.1,238 1139.6,557.6 1265,557.6 		"/>
		<polygon points="1139.6,557.6 1265,557.6 849.4,1063.1 724.1,1055 		"/>
		<polygon class="st2" points="1017.8,1060.4 1153.8,1060.4 1261.5,734.2 		"/>
		<polygon class="st1" points="1017.8,1060.4 1153.8,1060.4 1263.5,1165.5 940,1165.1 		"/>
		<polygon points="1261.5,734.2 1263.5,1165.5 1153.8,1060.4 		"/>
	</g>
</g>
<g id="Layer_3">
</g>
</svg>
